^D:\MEC\4. SEMESTER\INFO_3\INF3SLPROTO\STUVER_VON_DEN_HEFTIGSTEN\STDAFX.CPP
D:\MEC\4. SEMESTER\INFO_3\INF3SLPROTO\STUVER_VON_DEN_HEFTIGSTEN\DEBUG\STUVER_VON_DEN_HEFTIGSTEN.PCH
D:\MEC\4. SEMESTER\INFO_3\INF3SLPROTO\STUVER_VON_DEN_HEFTIGSTEN\DEBUG\STDAFX.OBJ
D:\MEC\4. SEMESTER\INFO_3\INF3SLPROTO\STUVER_VON_DEN_HEFTIGSTEN\DEBUG\VC100.PDB
^D:\MEC\4. SEMESTER\INFO_3\INF3SLPROTO\STUVER_VON_DEN_HEFTIGSTEN\ASSEMBLYINFO.CPP|D:\MEC\4. SEMESTER\INFO_3\INF3SLPROTO\STUVER_VON_DEN_HEFTIGSTEN\DATENBASISLADEN.CPP|D:\MEC\4. SEMESTER\INFO_3\INF3SLPROTO\STUVER_VON_DEN_HEFTIGSTEN\DATENBASISSPEICHERN.CPP|D:\MEC\4. SEMESTER\INFO_3\INF3SLPROTO\STUVER_VON_DEN_HEFTIGSTEN\DATENSATZAUSGEBEN.CPP|D:\MEC\4. SEMESTER\INFO_3\INF3SLPROTO\STUVER_VON_DEN_HEFTIGSTEN\DATENSATZEINGEBEN.CPP|D:\MEC\4. SEMESTER\INFO_3\INF3SLPROTO\STUVER_VON_DEN_HEFTIGSTEN\DATENSATZLOESCHEN.CPP|D:\MEC\4. SEMESTER\INFO_3\INF3SLPROTO\STUVER_VON_DEN_HEFTIGSTEN\DATENSATZSUCHEN.CPP|D:\MEC\4. SEMESTER\INFO_3\INF3SLPROTO\STUVER_VON_DEN_HEFTIGSTEN\FILEIO.CPP|D:\MEC\4. SEMESTER\INFO_3\INF3SLPROTO\STUVER_VON_DEN_HEFTIGSTEN\FILLTEXTBOXES.CPP|D:\MEC\4. SEMESTER\INFO_3\INF3SLPROTO\STUVER_VON_DEN_HEFTIGSTEN\FORM1.CPP|D:\MEC\4. SEMESTER\INFO_3\INF3SLPROTO\STUVER_VON_DEN_HEFTIGSTEN\KEYFUNC.CPP|D:\MEC\4. SEMESTER\INFO_3\INF3SLPROTO\STUVER_VON_DEN_HEFTIGSTEN\PARSER.CPP|D:\MEC\4. SEMESTER\INFO_3\INF3SLPROTO\STUVER_VON_DEN_HEFTIGSTEN\STUVER_VON_DEN_HEFTIGSTEN.CPP
D:\MEC\4. SEMESTER\INFO_3\INF3SLPROTO\STUVER_VON_DEN_HEFTIGSTEN\DEBUG\STUVER_VON_DEN_HEFTIGSTEN.OBJ
D:\MEC\4. SEMESTER\INFO_3\INF3SLPROTO\STUVER_VON_DEN_HEFTIGSTEN\DEBUG\PARSER.OBJ
D:\MEC\4. SEMESTER\INFO_3\INF3SLPROTO\STUVER_VON_DEN_HEFTIGSTEN\DEBUG\KEYFUNC.OBJ
D:\MEC\4. SEMESTER\INFO_3\INF3SLPROTO\STUVER_VON_DEN_HEFTIGSTEN\DEBUG\FORM1.OBJ
D:\MEC\4. SEMESTER\INFO_3\INF3SLPROTO\STUVER_VON_DEN_HEFTIGSTEN\DEBUG\FILLTEXTBOXES.OBJ
D:\MEC\4. SEMESTER\INFO_3\INF3SLPROTO\STUVER_VON_DEN_HEFTIGSTEN\DEBUG\FILEIO.OBJ
D:\MEC\4. SEMESTER\INFO_3\INF3SLPROTO\STUVER_VON_DEN_HEFTIGSTEN\DEBUG\DATENSATZSUCHEN.OBJ
D:\MEC\4. SEMESTER\INFO_3\INF3SLPROTO\STUVER_VON_DEN_HEFTIGSTEN\DEBUG\DATENSATZLOESCHEN.OBJ
D:\MEC\4. SEMESTER\INFO_3\INF3SLPROTO\STUVER_VON_DEN_HEFTIGSTEN\DEBUG\DATENSATZEINGEBEN.OBJ
D:\MEC\4. SEMESTER\INFO_3\INF3SLPROTO\STUVER_VON_DEN_HEFTIGSTEN\DEBUG\DATENSATZAUSGEBEN.OBJ
D:\MEC\4. SEMESTER\INFO_3\INF3SLPROTO\STUVER_VON_DEN_HEFTIGSTEN\DEBUG\DATENBASISSPEICHERN.OBJ
D:\MEC\4. SEMESTER\INFO_3\INF3SLPROTO\STUVER_VON_DEN_HEFTIGSTEN\DEBUG\DATENBASISLADEN.OBJ
D:\MEC\4. SEMESTER\INFO_3\INF3SLPROTO\STUVER_VON_DEN_HEFTIGSTEN\DEBUG\ASSEMBLYINFO.OBJ
^D:\MEC\4. SEMESTER\INFO_3\INF3SLPROTO\STUVER_VON_DEN_HEFTIGSTEN\ASSEMBLYINFO.CPP
D:\MEC\4. SEMESTER\INFO_3\INF3SLPROTO\STUVER_VON_DEN_HEFTIGSTEN\DEBUG\VC100.PDB
^D:\MEC\4. SEMESTER\INFO_3\INF3SLPROTO\STUVER_VON_DEN_HEFTIGSTEN\DATENBASISLADEN.CPP
D:\MEC\4. SEMESTER\INFO_3\INF3SLPROTO\STUVER_VON_DEN_HEFTIGSTEN\DEBUG\VC100.PDB
^D:\MEC\4. SEMESTER\INFO_3\INF3SLPROTO\STUVER_VON_DEN_HEFTIGSTEN\DATENBASISSPEICHERN.CPP
D:\MEC\4. SEMESTER\INFO_3\INF3SLPROTO\STUVER_VON_DEN_HEFTIGSTEN\DEBUG\VC100.PDB
^D:\MEC\4. SEMESTER\INFO_3\INF3SLPROTO\STUVER_VON_DEN_HEFTIGSTEN\DATENSATZLOESCHEN.CPP
D:\MEC\4. SEMESTER\INFO_3\INF3SLPROTO\STUVER_VON_DEN_HEFTIGSTEN\DEBUG\VC100.PDB
^D:\MEC\4. SEMESTER\INFO_3\INF3SLPROTO\STUVER_VON_DEN_HEFTIGSTEN\DATENSATZSUCHEN.CPP
D:\MEC\4. SEMESTER\INFO_3\INF3SLPROTO\STUVER_VON_DEN_HEFTIGSTEN\DEBUG\VC100.PDB
^D:\MEC\4. SEMESTER\INFO_3\INF3SLPROTO\STUVER_VON_DEN_HEFTIGSTEN\FILEIO.CPP
D:\MEC\4. SEMESTER\INFO_3\INF3SLPROTO\STUVER_VON_DEN_HEFTIGSTEN\DEBUG\VC100.PDB
^D:\MEC\4. SEMESTER\INFO_3\INF3SLPROTO\STUVER_VON_DEN_HEFTIGSTEN\PARSER.CPP
D:\MEC\4. SEMESTER\INFO_3\INF3SLPROTO\STUVER_VON_DEN_HEFTIGSTEN\DEBUG\VC100.PDB
^D:\MEC\4. SEMESTER\INFO_3\INF3SLPROTO\STUVER_VON_DEN_HEFTIGSTEN\STUVER_VON_DEN_HEFTIGSTEN.CPP
D:\MEC\4. SEMESTER\INFO_3\INF3SLPROTO\STUVER_VON_DEN_HEFTIGSTEN\DEBUG\VC100.PDB
^C:\USERS\N.KROFTA\APPDATA\LOCAL\TEMP\.NETFRAMEWORK,VERSION=V4.0.ASSEMBLYATTRIBUTES.CPP
D:\MEC\4. SEMESTER\INFO_3\INF3SLPROTO\STUVER_VON_DEN_HEFTIGSTEN\DEBUG\.NETFRAMEWORK,VERSION=V4.0.ASSEMBLYATTRIBUTES.OBJ
D:\MEC\4. SEMESTER\INFO_3\INF3SLPROTO\STUVER_VON_DEN_HEFTIGSTEN\DEBUG\VC100.PDB
^D:\MEC\4. SEMESTER\INFO_3\INF3SLPROTO\STUVER_VON_DEN_HEFTIGSTEN\DATENSATZAUSGEBEN.CPP|D:\MEC\4. SEMESTER\INFO_3\INF3SLPROTO\STUVER_VON_DEN_HEFTIGSTEN\DATENSATZEINGEBEN.CPP|D:\MEC\4. SEMESTER\INFO_3\INF3SLPROTO\STUVER_VON_DEN_HEFTIGSTEN\FILLTEXTBOXES.CPP|D:\MEC\4. SEMESTER\INFO_3\INF3SLPROTO\STUVER_VON_DEN_HEFTIGSTEN\FORM1.CPP|D:\MEC\4. SEMESTER\INFO_3\INF3SLPROTO\STUVER_VON_DEN_HEFTIGSTEN\KEYFUNC.CPP
D:\MEC\4. SEMESTER\INFO_3\INF3SLPROTO\STUVER_VON_DEN_HEFTIGSTEN\DEBUG\KEYFUNC.OBJ
D:\MEC\4. SEMESTER\INFO_3\INF3SLPROTO\STUVER_VON_DEN_HEFTIGSTEN\DEBUG\FILLTEXTBOXES.OBJ
D:\MEC\4. SEMESTER\INFO_3\INF3SLPROTO\STUVER_VON_DEN_HEFTIGSTEN\DEBUG\FORM1.OBJ
D:\MEC\4. SEMESTER\INFO_3\INF3SLPROTO\STUVER_VON_DEN_HEFTIGSTEN\DEBUG\DATENSATZEINGEBEN.OBJ
D:\MEC\4. SEMESTER\INFO_3\INF3SLPROTO\STUVER_VON_DEN_HEFTIGSTEN\DEBUG\DATENSATZAUSGEBEN.OBJ
^D:\MEC\4. SEMESTER\INFO_3\INF3SLPROTO\STUVER_VON_DEN_HEFTIGSTEN\DATENSATZAUSGEBEN.CPP
D:\MEC\4. SEMESTER\INFO_3\INF3SLPROTO\STUVER_VON_DEN_HEFTIGSTEN\DEBUG\VC100.PDB
^D:\MEC\4. SEMESTER\INFO_3\INF3SLPROTO\STUVER_VON_DEN_HEFTIGSTEN\FORM1.CPP
D:\MEC\4. SEMESTER\INFO_3\INF3SLPROTO\STUVER_VON_DEN_HEFTIGSTEN\DEBUG\VC100.PDB
^D:\MEC\4. SEMESTER\INFO_3\INF3SLPROTO\STUVER_VON_DEN_HEFTIGSTEN\FILLTEXTBOXES.CPP
D:\MEC\4. SEMESTER\INFO_3\INF3SLPROTO\STUVER_VON_DEN_HEFTIGSTEN\DEBUG\VC100.PDB
^D:\MEC\4. SEMESTER\INFO_3\INF3SLPROTO\STUVER_VON_DEN_HEFTIGSTEN\KEYFUNC.CPP
D:\MEC\4. SEMESTER\INFO_3\INF3SLPROTO\STUVER_VON_DEN_HEFTIGSTEN\DEBUG\VC100.PDB
^D:\MEC\4. SEMESTER\INFO_3\INF3SLPROTO\STUVER_VON_DEN_HEFTIGSTEN\DATENSATZEINGEBEN.CPP
D:\MEC\4. SEMESTER\INFO_3\INF3SLPROTO\STUVER_VON_DEN_HEFTIGSTEN\DEBUG\DATENSATZEINGEBEN.OBJ
D:\MEC\4. SEMESTER\INFO_3\INF3SLPROTO\STUVER_VON_DEN_HEFTIGSTEN\DEBUG\VC100.PDB
^C:\INFO 3\STUVER_VON_DEN_HEFTIGSTEN\STUVER_VON_DEN_HEFTIGSTEN\STDAFX.CPP
C:\INFO 3\STUVER_VON_DEN_HEFTIGSTEN\STUVER_VON_DEN_HEFTIGSTEN\DEBUG\STUVER_VON_DEN_HEFTIGSTEN.PCH
C:\INFO 3\STUVER_VON_DEN_HEFTIGSTEN\STUVER_VON_DEN_HEFTIGSTEN\DEBUG\STDAFX.OBJ
C:\INFO 3\STUVER_VON_DEN_HEFTIGSTEN\STUVER_VON_DEN_HEFTIGSTEN\DEBUG\VC100.PDB
^C:\INFO 3\STUVER_VON_DEN_HEFTIGSTEN\STUVER_VON_DEN_HEFTIGSTEN\ASSEMBLYINFO.CPP|C:\INFO 3\STUVER_VON_DEN_HEFTIGSTEN\STUVER_VON_DEN_HEFTIGSTEN\DATENBASISLADEN.CPP|C:\INFO 3\STUVER_VON_DEN_HEFTIGSTEN\STUVER_VON_DEN_HEFTIGSTEN\DATENBASISSPEICHERN.CPP|C:\INFO 3\STUVER_VON_DEN_HEFTIGSTEN\STUVER_VON_DEN_HEFTIGSTEN\DATENSATZAUSGEBEN.CPP|C:\INFO 3\STUVER_VON_DEN_HEFTIGSTEN\STUVER_VON_DEN_HEFTIGSTEN\DATENSATZEINGEBEN.CPP|C:\INFO 3\STUVER_VON_DEN_HEFTIGSTEN\STUVER_VON_DEN_HEFTIGSTEN\DATENSATZLOESCHEN.CPP|C:\INFO 3\STUVER_VON_DEN_HEFTIGSTEN\STUVER_VON_DEN_HEFTIGSTEN\DATENSATZSUCHEN.CPP|C:\INFO 3\STUVER_VON_DEN_HEFTIGSTEN\STUVER_VON_DEN_HEFTIGSTEN\FILEIO.CPP|C:\INFO 3\STUVER_VON_DEN_HEFTIGSTEN\STUVER_VON_DEN_HEFTIGSTEN\FILLTEXTBOXES.CPP|C:\INFO 3\STUVER_VON_DEN_HEFTIGSTEN\STUVER_VON_DEN_HEFTIGSTEN\FORM1.CPP|C:\INFO 3\STUVER_VON_DEN_HEFTIGSTEN\STUVER_VON_DEN_HEFTIGSTEN\KEYFUNC.CPP|C:\INFO 3\STUVER_VON_DEN_HEFTIGSTEN\STUVER_VON_DEN_HEFTIGSTEN\PARSER.CPP|C:\INFO 3\STUVER_VON_DEN_HEFTIGSTEN\STUVER_VON_DEN_HEFTIGSTEN\STUVER_VON_DEN_HEFTIGSTEN.CPP
C:\INFO 3\STUVER_VON_DEN_HEFTIGSTEN\STUVER_VON_DEN_HEFTIGSTEN\DEBUG\STUVER_VON_DEN_HEFTIGSTEN.OBJ
C:\INFO 3\STUVER_VON_DEN_HEFTIGSTEN\STUVER_VON_DEN_HEFTIGSTEN\DEBUG\PARSER.OBJ
C:\INFO 3\STUVER_VON_DEN_HEFTIGSTEN\STUVER_VON_DEN_HEFTIGSTEN\DEBUG\KEYFUNC.OBJ
C:\INFO 3\STUVER_VON_DEN_HEFTIGSTEN\STUVER_VON_DEN_HEFTIGSTEN\DEBUG\FORM1.OBJ
C:\INFO 3\STUVER_VON_DEN_HEFTIGSTEN\STUVER_VON_DEN_HEFTIGSTEN\DEBUG\FILLTEXTBOXES.OBJ
C:\INFO 3\STUVER_VON_DEN_HEFTIGSTEN\STUVER_VON_DEN_HEFTIGSTEN\DEBUG\FILEIO.OBJ
C:\INFO 3\STUVER_VON_DEN_HEFTIGSTEN\STUVER_VON_DEN_HEFTIGSTEN\DEBUG\DATENSATZSUCHEN.OBJ
C:\INFO 3\STUVER_VON_DEN_HEFTIGSTEN\STUVER_VON_DEN_HEFTIGSTEN\DEBUG\DATENSATZLOESCHEN.OBJ
C:\INFO 3\STUVER_VON_DEN_HEFTIGSTEN\STUVER_VON_DEN_HEFTIGSTEN\DEBUG\DATENSATZEINGEBEN.OBJ
C:\INFO 3\STUVER_VON_DEN_HEFTIGSTEN\STUVER_VON_DEN_HEFTIGSTEN\DEBUG\DATENSATZAUSGEBEN.OBJ
C:\INFO 3\STUVER_VON_DEN_HEFTIGSTEN\STUVER_VON_DEN_HEFTIGSTEN\DEBUG\DATENBASISSPEICHERN.OBJ
C:\INFO 3\STUVER_VON_DEN_HEFTIGSTEN\STUVER_VON_DEN_HEFTIGSTEN\DEBUG\DATENBASISLADEN.OBJ
C:\INFO 3\STUVER_VON_DEN_HEFTIGSTEN\STUVER_VON_DEN_HEFTIGSTEN\DEBUG\ASSEMBLYINFO.OBJ
^C:\INFO 3\STUVER_VON_DEN_HEFTIGSTEN\STUVER_VON_DEN_HEFTIGSTEN\ASSEMBLYINFO.CPP
C:\INFO 3\STUVER_VON_DEN_HEFTIGSTEN\STUVER_VON_DEN_HEFTIGSTEN\DEBUG\VC100.PDB
^C:\INFO 3\STUVER_VON_DEN_HEFTIGSTEN\STUVER_VON_DEN_HEFTIGSTEN\DATENBASISLADEN.CPP
C:\INFO 3\STUVER_VON_DEN_HEFTIGSTEN\STUVER_VON_DEN_HEFTIGSTEN\DEBUG\VC100.PDB
^C:\INFO 3\STUVER_VON_DEN_HEFTIGSTEN\STUVER_VON_DEN_HEFTIGSTEN\DATENBASISSPEICHERN.CPP
C:\INFO 3\STUVER_VON_DEN_HEFTIGSTEN\STUVER_VON_DEN_HEFTIGSTEN\DEBUG\VC100.PDB
^C:\INFO 3\STUVER_VON_DEN_HEFTIGSTEN\STUVER_VON_DEN_HEFTIGSTEN\DATENSATZLOESCHEN.CPP
C:\INFO 3\STUVER_VON_DEN_HEFTIGSTEN\STUVER_VON_DEN_HEFTIGSTEN\DEBUG\VC100.PDB
^C:\INFO 3\STUVER_VON_DEN_HEFTIGSTEN\STUVER_VON_DEN_HEFTIGSTEN\DATENSATZSUCHEN.CPP
C:\INFO 3\STUVER_VON_DEN_HEFTIGSTEN\STUVER_VON_DEN_HEFTIGSTEN\DEBUG\VC100.PDB
^C:\INFO 3\STUVER_VON_DEN_HEFTIGSTEN\STUVER_VON_DEN_HEFTIGSTEN\FILEIO.CPP
C:\INFO 3\STUVER_VON_DEN_HEFTIGSTEN\STUVER_VON_DEN_HEFTIGSTEN\DEBUG\VC100.PDB
^C:\INFO 3\STUVER_VON_DEN_HEFTIGSTEN\STUVER_VON_DEN_HEFTIGSTEN\FILLTEXTBOXES.CPP
C:\INFO 3\STUVER_VON_DEN_HEFTIGSTEN\STUVER_VON_DEN_HEFTIGSTEN\DEBUG\VC100.PDB
^C:\INFO 3\STUVER_VON_DEN_HEFTIGSTEN\STUVER_VON_DEN_HEFTIGSTEN\KEYFUNC.CPP
C:\INFO 3\STUVER_VON_DEN_HEFTIGSTEN\STUVER_VON_DEN_HEFTIGSTEN\DEBUG\VC100.PDB
^C:\INFO 3\STUVER_VON_DEN_HEFTIGSTEN\STUVER_VON_DEN_HEFTIGSTEN\PARSER.CPP
C:\INFO 3\STUVER_VON_DEN_HEFTIGSTEN\STUVER_VON_DEN_HEFTIGSTEN\DEBUG\VC100.PDB
^C:\INFO 3\STUVER_VON_DEN_HEFTIGSTEN\STUVER_VON_DEN_HEFTIGSTEN\STUVER_VON_DEN_HEFTIGSTEN.CPP
C:\INFO 3\STUVER_VON_DEN_HEFTIGSTEN\STUVER_VON_DEN_HEFTIGSTEN\DEBUG\VC100.PDB
^C:\USERS\CHRISTOPH\APPDATA\LOCAL\TEMP\.NETFRAMEWORK,VERSION=V4.0.ASSEMBLYATTRIBUTES.CPP
C:\INFO 3\STUVER_VON_DEN_HEFTIGSTEN\STUVER_VON_DEN_HEFTIGSTEN\DEBUG\.NETFRAMEWORK,VERSION=V4.0.ASSEMBLYATTRIBUTES.OBJ
C:\INFO 3\STUVER_VON_DEN_HEFTIGSTEN\STUVER_VON_DEN_HEFTIGSTEN\DEBUG\VC100.PDB
^C:\INFO 3\STUVER_VON_DEN_HEFTIGSTEN\STUVER_VON_DEN_HEFTIGSTEN\DATENSATZAUSGEBEN.CPP|C:\INFO 3\STUVER_VON_DEN_HEFTIGSTEN\STUVER_VON_DEN_HEFTIGSTEN\DATENSATZEINGEBEN.CPP|C:\INFO 3\STUVER_VON_DEN_HEFTIGSTEN\STUVER_VON_DEN_HEFTIGSTEN\FORM1.CPP
C:\INFO 3\STUVER_VON_DEN_HEFTIGSTEN\STUVER_VON_DEN_HEFTIGSTEN\DEBUG\FORM1.OBJ
C:\INFO 3\STUVER_VON_DEN_HEFTIGSTEN\STUVER_VON_DEN_HEFTIGSTEN\DEBUG\DATENSATZEINGEBEN.OBJ
C:\INFO 3\STUVER_VON_DEN_HEFTIGSTEN\STUVER_VON_DEN_HEFTIGSTEN\DEBUG\DATENSATZAUSGEBEN.OBJ
^C:\INFO 3\STUVER_VON_DEN_HEFTIGSTEN\STUVER_VON_DEN_HEFTIGSTEN\DATENSATZEINGEBEN.CPP
C:\INFO 3\STUVER_VON_DEN_HEFTIGSTEN\STUVER_VON_DEN_HEFTIGSTEN\DEBUG\VC100.PDB
^C:\INFO 3\STUVER_VON_DEN_HEFTIGSTEN\STUVER_VON_DEN_HEFTIGSTEN\FORM1.CPP
C:\INFO 3\STUVER_VON_DEN_HEFTIGSTEN\STUVER_VON_DEN_HEFTIGSTEN\DEBUG\VC100.PDB
^C:\INFO 3\STUVER_VON_DEN_HEFTIGSTEN\STUVER_VON_DEN_HEFTIGSTEN\DATENSATZAUSGEBEN.CPP
C:\INFO 3\STUVER_VON_DEN_HEFTIGSTEN\STUVER_VON_DEN_HEFTIGSTEN\DEBUG\DATENSATZAUSGEBEN.OBJ
C:\INFO 3\STUVER_VON_DEN_HEFTIGSTEN\STUVER_VON_DEN_HEFTIGSTEN\DEBUG\VC100.PDB
