^D:\MEC\4. SEMESTER\INFO_3\INF3SLPROTO\STUVER_VON_DEN_HEFTIGSTEN\DEBUG\.NETFRAMEWORK,VERSION=V4.0.ASSEMBLYATTRIBUTES.OBJ|D:\MEC\4. SEMESTER\INFO_3\INF3SLPROTO\STUVER_VON_DEN_HEFTIGSTEN\DEBUG\APP.RES|D:\MEC\4. SEMESTER\INFO_3\INF3SLPROTO\STUVER_VON_DEN_HEFTIGSTEN\DEBUG\ASSEMBLYINFO.OBJ|D:\MEC\4. SEMESTER\INFO_3\INF3SLPROTO\STUVER_VON_DEN_HEFTIGSTEN\DEBUG\DATENBASISLADEN.OBJ|D:\MEC\4. SEMESTER\INFO_3\INF3SLPROTO\STUVER_VON_DEN_HEFTIGSTEN\DEBUG\DATENBASISSPEICHERN.OBJ|D:\MEC\4. SEMESTER\INFO_3\INF3SLPROTO\STUVER_VON_DEN_HEFTIGSTEN\DEBUG\DATENSATZAUSGEBEN.OBJ|D:\MEC\4. SEMESTER\INFO_3\INF3SLPROTO\STUVER_VON_DEN_HEFTIGSTEN\DEBUG\DATENSATZEINGEBEN.OBJ|D:\MEC\4. SEMESTER\INFO_3\INF3SLPROTO\STUVER_VON_DEN_HEFTIGSTEN\DEBUG\DATENSATZLOESCHEN.OBJ|D:\MEC\4. SEMESTER\INFO_3\INF3SLPROTO\STUVER_VON_DEN_HEFTIGSTEN\DEBUG\DATENSATZSUCHEN.OBJ|D:\MEC\4. SEMESTER\INFO_3\INF3SLPROTO\STUVER_VON_DEN_HEFTIGSTEN\DEBUG\FILEIO.OBJ|D:\MEC\4. SEMESTER\INFO_3\INF3SLPROTO\STUVER_VON_DEN_HEFTIGSTEN\DEBUG\FILLTEXTBOXES.OBJ|D:\MEC\4. SEMESTER\INFO_3\INF3SLPROTO\STUVER_VON_DEN_HEFTIGSTEN\DEBUG\FORM1.OBJ|D:\MEC\4. SEMESTER\INFO_3\INF3SLPROTO\STUVER_VON_DEN_HEFTIGSTEN\DEBUG\KEYFUNC.OBJ|D:\MEC\4. SEMESTER\INFO_3\INF3SLPROTO\STUVER_VON_DEN_HEFTIGSTEN\DEBUG\PARSER.OBJ|D:\MEC\4. SEMESTER\INFO_3\INF3SLPROTO\STUVER_VON_DEN_HEFTIGSTEN\DEBUG\STDAFX.OBJ|D:\MEC\4. SEMESTER\INFO_3\INF3SLPROTO\STUVER_VON_DEN_HEFTIGSTEN\DEBUG\STUVER_VON_DEN_HEFTIGSTEN.OBJ
/ERRORREPORT:PROMPT /OUT:"D:\MEC\4. Semester\info_3\inf3slproto\Debug\StuVer_von_den_heftigsten.exe" /INCREMENTAL /NOLOGO /ASSEMBLYRESOURCE:Debug\StuVer_von_den_heftigsten.DatenbasisLaden.resources /ASSEMBLYRESOURCE:Debug\StuVer_von_den_heftigsten.DatensatzAusgeben.resources /ASSEMBLYRESOURCE:Debug\StuVer_von_den_heftigsten.DatensatzEingeben.resources /ASSEMBLYRESOURCE:Debug\StuVer_von_den_heftigsten.Form1.resources /MANIFEST /ManifestFile:"Debug\StuVer_von_den_heftigsten.exe.intermediate.manifest" /MANIFESTUAC:"level='asInvoker' uiAccess='false'" /DEBUG /PDB:"D:\MEC\4. Semester\info_3\inf3slproto\Debug\StuVer_von_den_heftigsten.pdb" /ASSEMBLYDEBUG /SUBSYSTEM:WINDOWS /TLBID:1 /ENTRY:"main" /DYNAMICBASE /FIXED:NO /NXCOMPAT /MACHINE:X86 Debug\app.res
Debug\AssemblyInfo.obj
Debug\DatenbasisLaden.obj
Debug\DatenbasisSpeichern.obj
Debug\DatensatzAusgeben.obj
Debug\DatensatzEingeben.obj
Debug\DatensatzLoeschen.obj
Debug\DatensatzSuchen.obj
Debug\fileIO.obj
Debug\fillTextBoxes.obj
Debug\Form1.obj
Debug\keyfunc.obj
Debug\parser.obj
Debug\stdafx.obj
Debug\StuVer_von_den_heftigsten.obj
"Debug\.NETFramework,Version=v4.0.AssemblyAttributes.obj"
^C:\INFO 3\STUVER_VON_DEN_HEFTIGSTEN\STUVER_VON_DEN_HEFTIGSTEN\DEBUG\.NETFRAMEWORK,VERSION=V4.0.ASSEMBLYATTRIBUTES.OBJ|C:\INFO 3\STUVER_VON_DEN_HEFTIGSTEN\STUVER_VON_DEN_HEFTIGSTEN\DEBUG\APP.RES|C:\INFO 3\STUVER_VON_DEN_HEFTIGSTEN\STUVER_VON_DEN_HEFTIGSTEN\DEBUG\ASSEMBLYINFO.OBJ|C:\INFO 3\STUVER_VON_DEN_HEFTIGSTEN\STUVER_VON_DEN_HEFTIGSTEN\DEBUG\DATENBASISLADEN.OBJ|C:\INFO 3\STUVER_VON_DEN_HEFTIGSTEN\STUVER_VON_DEN_HEFTIGSTEN\DEBUG\DATENBASISSPEICHERN.OBJ|C:\INFO 3\STUVER_VON_DEN_HEFTIGSTEN\STUVER_VON_DEN_HEFTIGSTEN\DEBUG\DATENSATZAUSGEBEN.OBJ|C:\INFO 3\STUVER_VON_DEN_HEFTIGSTEN\STUVER_VON_DEN_HEFTIGSTEN\DEBUG\DATENSATZEINGEBEN.OBJ|C:\INFO 3\STUVER_VON_DEN_HEFTIGSTEN\STUVER_VON_DEN_HEFTIGSTEN\DEBUG\DATENSATZLOESCHEN.OBJ|C:\INFO 3\STUVER_VON_DEN_HEFTIGSTEN\STUVER_VON_DEN_HEFTIGSTEN\DEBUG\DATENSATZSUCHEN.OBJ|C:\INFO 3\STUVER_VON_DEN_HEFTIGSTEN\STUVER_VON_DEN_HEFTIGSTEN\DEBUG\FILEIO.OBJ|C:\INFO 3\STUVER_VON_DEN_HEFTIGSTEN\STUVER_VON_DEN_HEFTIGSTEN\DEBUG\FILLTEXTBOXES.OBJ|C:\INFO 3\STUVER_VON_DEN_HEFTIGSTEN\STUVER_VON_DEN_HEFTIGSTEN\DEBUG\FORM1.OBJ|C:\INFO 3\STUVER_VON_DEN_HEFTIGSTEN\STUVER_VON_DEN_HEFTIGSTEN\DEBUG\KEYFUNC.OBJ|C:\INFO 3\STUVER_VON_DEN_HEFTIGSTEN\STUVER_VON_DEN_HEFTIGSTEN\DEBUG\PARSER.OBJ|C:\INFO 3\STUVER_VON_DEN_HEFTIGSTEN\STUVER_VON_DEN_HEFTIGSTEN\DEBUG\STDAFX.OBJ|C:\INFO 3\STUVER_VON_DEN_HEFTIGSTEN\STUVER_VON_DEN_HEFTIGSTEN\DEBUG\STUVER_VON_DEN_HEFTIGSTEN.OBJ
/ERRORREPORT:PROMPT /OUT:"C:\info 3\StuVer_von_den_heftigsten\Debug\StuVer_von_den_heftigsten.exe" /INCREMENTAL /NOLOGO /ASSEMBLYRESOURCE:Debug\StuVer_von_den_heftigsten.DatenbasisLaden.resources /ASSEMBLYRESOURCE:Debug\StuVer_von_den_heftigsten.DatensatzAusgeben.resources /ASSEMBLYRESOURCE:Debug\StuVer_von_den_heftigsten.DatensatzEingeben.resources /ASSEMBLYRESOURCE:Debug\StuVer_von_den_heftigsten.Form1.resources /MANIFEST /ManifestFile:"Debug\StuVer_von_den_heftigsten.exe.intermediate.manifest" /MANIFESTUAC:"level='asInvoker' uiAccess='false'" /DEBUG /PDB:"C:\info 3\StuVer_von_den_heftigsten\Debug\StuVer_von_den_heftigsten.pdb" /ASSEMBLYDEBUG /SUBSYSTEM:WINDOWS /TLBID:1 /ENTRY:"main" /DYNAMICBASE /FIXED:NO /NXCOMPAT /MACHINE:X86 Debug\app.res
Debug\AssemblyInfo.obj
Debug\DatenbasisLaden.obj
Debug\DatenbasisSpeichern.obj
Debug\DatensatzAusgeben.obj
Debug\DatensatzEingeben.obj
Debug\DatensatzLoeschen.obj
Debug\DatensatzSuchen.obj
Debug\fileIO.obj
Debug\fillTextBoxes.obj
Debug\Form1.obj
Debug\keyfunc.obj
Debug\parser.obj
Debug\stdafx.obj
Debug\StuVer_von_den_heftigsten.obj
"Debug\.NETFramework,Version=v4.0.AssemblyAttributes.obj"
