^D:\MEC\4. SEMESTER\INFO_3\INF3SLPROTO\STUVER_VON_DEN_HEFTIGSTEN\DEBUG\STUVER_VON_DEN_HEFTIGSTEN.EXE.INTERMEDIATE.MANIFEST
C:\WINDOWS\MICROSOFT.NET\FRAMEWORK\V2.0.50727\MSCORWKS.DLL
C:\WINDOWS\MICROSOFT.NET\FRAMEWORK\V4.0.30319\CLR.DLL
C:\PROGRAM FILES (X86)\MICROSOFT SDKS\WINDOWS\V7.0A\BIN\MT.EXE.CONFIG
D:\MEC\4. SEMESTER\INFO_3\INF3SLPROTO\DEBUG\STUVER_VON_DEN_HEFTIGSTEN.EXE
^C:\INFO 3\STUVER_VON_DEN_HEFTIGSTEN\STUVER_VON_DEN_HEFTIGSTEN\DEBUG\STUVER_VON_DEN_HEFTIGSTEN.EXE.INTERMEDIATE.MANIFEST
C:\WINDOWS\MICROSOFT.NET\FRAMEWORK\V2.0.50727\MSCORWKS.DLL
C:\WINDOWS\MICROSOFT.NET\FRAMEWORK\V4.0.30319\CLR.DLL
C:\PROGRAM FILES (X86)\MICROSOFT SDKS\WINDOWS\V7.0A\BIN\MT.EXE.CONFIG
C:\INFO 3\STUVER_VON_DEN_HEFTIGSTEN\DEBUG\STUVER_VON_DEN_HEFTIGSTEN.EXE
