^D:\MEC\4. SEMESTER\INFO_3\INF3SLPROTO\STUVER_VON_DEN_HEFTIGSTEN\DEBUG\STUVER_VON_DEN_HEFTIGSTEN.EXE.INTERMEDIATE.MANIFEST
D:\MEC\4. SEMESTER\INFO_3\INF3SLPROTO\DEBUG\STUVER_VON_DEN_HEFTIGSTEN.EXE
^C:\INFO 3\STUVER_VON_DEN_HEFTIGSTEN\STUVER_VON_DEN_HEFTIGSTEN\DEBUG\STUVER_VON_DEN_HEFTIGSTEN.EXE.INTERMEDIATE.MANIFEST
C:\INFO 3\STUVER_VON_DEN_HEFTIGSTEN\DEBUG\STUVER_VON_DEN_HEFTIGSTEN.EXE
